%!PS-Adobe-3.0 EPSF-3.0
%%Creator: cairo 1.15.8 (http://cairographics.org)
%%CreationDate: Sun Dec 31 18:58:03 2017
%%Pages: 1
%%DocumentData: Clean7Bit
%%LanguageLevel: 2
%%BoundingBox: 0 0 194 89
%%EndComments
%%BeginProlog
save
50 dict begin
/q { gsave } bind def
/Q { grestore } bind def
/cm { 6 array astore concat } bind def
/w { setlinewidth } bind def
/J { setlinecap } bind def
/j { setlinejoin } bind def
/M { setmiterlimit } bind def
/d { setdash } bind def
/m { moveto } bind def
/l { lineto } bind def
/c { curveto } bind def
/h { closepath } bind def
/re { exch dup neg 3 1 roll 5 3 roll moveto 0 rlineto
      0 exch rlineto 0 rlineto closepath } bind def
/S { stroke } bind def
/f { fill } bind def
/f* { eofill } bind def
/n { newpath } bind def
/W { clip } bind def
/W* { eoclip } bind def
/BT { } bind def
/ET { } bind def
/pdfmark where { pop globaldict /?pdfmark /exec load put }
    { globaldict begin /?pdfmark /pop load def /pdfmark
    /cleartomark load def end } ifelse
/BDC { mark 3 1 roll /BDC pdfmark } bind def
/EMC { mark /EMC pdfmark } bind def
/cairo_store_point { /cairo_point_y exch def /cairo_point_x exch def } def
/Tj { show currentpoint cairo_store_point } bind def
/TJ {
  {
    dup
    type /stringtype eq
    { show } { -0.001 mul 0 cairo_font_matrix dtransform rmoveto } ifelse
  } forall
  currentpoint cairo_store_point
} bind def
/cairo_selectfont { cairo_font_matrix aload pop pop pop 0 0 6 array astore
    cairo_font exch selectfont cairo_point_x cairo_point_y moveto } bind def
/Tf { pop /cairo_font exch def /cairo_font_matrix where
      { pop cairo_selectfont } if } bind def
/Td { matrix translate cairo_font_matrix matrix concatmatrix dup
      /cairo_font_matrix exch def dup 4 get exch 5 get cairo_store_point
      /cairo_font where { pop cairo_selectfont } if } bind def
/Tm { 2 copy 8 2 roll 6 array astore /cairo_font_matrix exch def
      cairo_store_point /cairo_font where { pop cairo_selectfont } if } bind def
/g { setgray } bind def
/rg { setrgbcolor } bind def
/d1 { setcachedevice } bind def
/cairo_flush_ascii85_file { cairo_ascii85_file status { cairo_ascii85_file flushfile } if } def
/cairo_image { image cairo_flush_ascii85_file } def
/cairo_imagemask { imagemask cairo_flush_ascii85_file } def
%%EndProlog
%%BeginSetup
%%EndSetup
%%Page: 1 1
%%BeginPageSetup
%%PageBoundingBox: 0 0 194 89
%%EndPageSetup
q 0 0 194 89 rectclip
1 0 0 -1 0 89 cm q
0.137255 0.121569 0.12549 rg
44.324 88.5 m 68.699 88.5 88.574 68.625 88.574 44.25 c 88.574 37.199 86.926
 30.523 83.926 24.602 c 88.727 22.5 98.477 19.875 108.523 25.949 c 105.977
 31.5 104.551 37.727 104.551 44.25 c 104.551 68.625 124.426 88.5 148.801
 88.5 c 173.176 88.5 193.051 68.625 193.051 44.25 c 193.051 19.875 173.176
 0 148.801 0 c 133.574 0 120.148 7.727 112.199 19.426 c 99.977 12.148 87.301
 14.625 79.949 18.148 c 71.926 7.199 58.875 0.074 44.25 0.074 c 19.875 0.074
 0 19.949 0 44.324 c 0.074 68.625 19.875 88.5 44.324 88.5 c h
148.801 7.5 m 169.051 7.5 185.551 24 185.551 44.25 c 185.551 64.5 169.051
 81 148.801 81 c 128.551 81 112.051 64.5 112.051 44.25 c 112.051 24 128.551
 7.5 148.801 7.5 c h
44.324 7.5 m 64.574 7.5 81.074 24 81.074 44.25 c 81.074 64.5 64.574 81 
44.324 81 c 24.074 81 7.574 64.5 7.574 44.25 c 7.574 24 24.074 7.5 44.324
 7.5 c h
44.324 7.5 m f
Q Q
showpage
%%Trailer
end restore
%%EOF
